﻿{
  "version": "1.0.0-*",

  "dependencies": {
    "NETStandard.Library": "1.6.0",
    "Microsoft.AspNetCore.Authentication": "1.1.0-*",
    "Microsoft.AspNetCore.Mvc": "1.1.0-*",
    "IdentityModel": "2.0.0",
    "Microsoft.AspNetCore.Authentication.OpenIdConnect": "1.1.0-*",
    "Microsoft.AspNetCore.Authentication.Cookies": "1.1.0-*"
  },

  "frameworks": {
    "netstandard1.6": {
      "imports": "dnxcore50"
    }
  }
}
